<?xml version="1.0" encoding="utf-8"?>
<!-- Generator: Adobe Illustrator 21.0.0, SVG Export Plug-In . SVG Version: 6.00 Build 0)  -->
<svg version="1.1" id="Layer_1" xmlns="http://www.w3.org/2000/svg" xmlns:xlink="http://www.w3.org/1999/xlink" x="0px" y="0px"
	 width="82" fill="#21be7d" viewBox="0 0 901 1019" enable-background="new 0 0 901 1019" xml:space="preserve">
<g>
	<defs>
		<rect id="SVGID_1_" x="3.6" y="5" width="895.1" height="1010"/>
	</defs>
	<clipPath id="SVGID_2_">
		<use xlink:href="#SVGID_1_"  style="overflow:visible;"/>
	</clipPath>
	<path class="st0" d="M747.1,802c-0.4,0-7.8,0.9-14.2-5l5.5-5.4c3.5-3.4,4.5-8.4,2.5-12.8c-2.1-4.6-7.1-7.2-12.4-6.7l-15,1.6
		c-5.3,0.6-9.6,4.2-10.7,9.1c-1.1,4.6,0.9,9.4,5,12c0,0,0,0,0,0l6.6,4.2c-5,7-12.3,7.8-12.8,7.8c-4.4,0.3-7.8,4-7.6,8.5
		c0.2,4.5,4,7.9,8.5,7.7c0.1,0,0.4,0,0.8-0.1c3-0.3,13.6-2.1,21.9-11.4c10.1,7.4,20.8,6.9,23.8,6.6c0.4,0,0.7-0.1,0.8-0.1
		c4.4-0.7,7.3-4.8,6.6-9.2C755.6,804.4,751.5,801.3,747.1,802"/>
	<path class="st0" d="M686.1,750.6c-17.8-20.2-47.3-7.7-48.6-7.2c-4.1,1.8-6,6.5-4.2,10.6c1.8,4.1,6.5,6,10.6,4.2
		c0.2-0.1,20-8.3,30,3c1.8,2,4.4,3,6.9,2.7c1.6-0.2,3.2-0.8,4.5-2C688.7,759,689,753.9,686.1,750.6"/>
	<path class="st0" d="M856.4,762.5c-7.9,6.6-23,18.1-38.4,23.7c0,0,0,0,0,0c10.3,2.3,12,16.4,2.4,20.9c-20.8,9.9-54.4,23-93,26.8
		c-38.5,4.2-74-1.6-96.5-7c-10.3-2.5-11.6-16.6-2-21h0c-16.1-2.3-33.4-10.4-42.4-15.2c-3.9-2.1-5.8-6.6-4.5-10.8
		c8.1-25.9,31.5-67.1,31.5-67.1c-7.3-44.2,1.1-70,7-81.7c2.3-4.6,8.1-6.1,12.4-3.4c29.9,19,46,54.9,46.5,56c0.8-0.7,14.2-7.6,31.4-9
		c17.2-2.2,31.7,1.8,32.6,2.3c0.3-1.2,8.6-39.7,33.9-64.4c3.7-3.6,9.7-3.3,12.8,0.7c8.2,10.2,21.7,33.7,23.7,78.4
		c0,0,31.4,35.5,44.7,59.2C860.7,754.9,859.8,759.7,856.4,762.5 M736.4,544.5l-77.6,8.1c-76.7,8-132.3,76.7-124.3,153.4l8.1,77.6
		c8,76.7,76.7,132.3,153.4,124.3l77.6-8.1c76.7-8,132.3-76.7,124.3-153.4l-8.1-77.6C881.7,592.1,813,536.5,736.4,544.5"/>
	<path class="st0" d="M796.6,726.7c-1.3-0.3-32.8-6.4-46,17.1c-2.2,3.9-0.8,8.8,3.1,11c1.5,0.9,3.2,1.2,4.8,1
		c2.5-0.3,4.9-1.7,6.2-4.1c7.4-13.1,28.3-9.3,28.7-9.2c4.4,0.9,8.6-1.9,9.5-6.3C803.8,731.9,801,727.6,796.6,726.7"/>
	<path class="st0" d="M475.3,937.9c8.2,6.3,16.5,9.4,25,9.4c8.5,0,16.9-3.2,25.4-9.6c8.5-6.4,12.7-15.9,12.7-28.5
		c0-12.6-4-21.9-11.9-28.1c-7.9-6.1-16.5-9.2-25.8-9.2c-9.2,0-17.8,3.2-25.8,9.6C467,888,463,897.4,463,909.8
		C463,922.3,467.1,931.6,475.3,937.9 M427.3,834.3c21.5-20,46.1-30,73.8-30s52.2,9.9,73.4,29.8c21.3,19.9,31.9,45.2,31.9,75.9
		c0,21.3-5.5,40.2-16.5,56.7c-11,16.5-24.4,28.7-40.2,36.5c-15.8,7.8-32.1,11.7-49,11.7c-16.9,0-33.3-4.2-49.2-12.5
		c-15.9-8.3-29.3-20.6-40.2-36.9c-10.9-16.3-16.3-34.7-16.3-55.2C395,879.6,405.7,854.3,427.3,834.3"/>
	<path class="st0" d="M456.8,456.8c-6.6-3.4-14.7-0.8-18.1,5.8c-0.9,1.7-21.9,41.4-57.1,29.5c-9-3-14.8-7.8-17.8-14.5
		c-2.7-6.1-2.9-13.4-2.2-20c2.3-1.1,4.5-2.5,6.4-4.3l21.5-20c8.6-8,12.3-20.6,9.1-31.4c-2.7-9-9.8-15.4-18.9-17l-37-6.5
		c-9.2-1.6-18,1.9-23.6,9.5c-6.6,9-7.5,22.1-2.1,32.6l13.4,26.2c1.2,2.3,2.8,4.4,4.6,6.2c-1.5,6.5-4.2,13.2-8.9,18
		c-5.1,5.3-12.2,7.7-21.7,7.5c-37.1-0.9-43.3-45.4-43.6-47.2c-0.9-7.4-7.6-12.6-15-11.7c-7.4,0.9-12.6,7.6-11.7,15
		c2.7,22.1,18.5,62.6,58.7,69.7c1.4,0.2,2.8,0.4,4.2,0.6c-2,22.5,2.7,55.7,31.7,60.8c29,5.1,44.8-24.4,50.6-46.3
		c1.4,0.3,2.8,0.7,4.1,0.9c40.3,7.1,68.9-25.6,79-45.4C466,468.2,463.4,460.1,456.8,456.8"/>
	<path class="st0" d="M290.8,352.7c3-17.3-8.5-33.8-25.8-36.9c-17.3-3-33.8,8.5-36.9,25.8c-3,17.3,8.5,33.8,25.8,36.9
		C271.2,381.5,287.7,369.9,290.8,352.7"/>
	<path class="st0" d="M474.4,352.7c-17.3-3-33.8,8.5-36.9,25.8c-3,17.3,8.5,33.8,25.8,36.9c17.3,3,33.8-8.5,36.9-25.8
		C503.3,372.3,491.7,355.8,474.4,352.7"/>
	<path class="st0" d="M550.9,550c-32.2,54.1-170.7,55.1-227.2,45.2c-56.5-10-186.3-58.3-198.1-120.2c-11.8-61.9,70-227.9,70-227.9
		s-23.7-109.3,9-139C237.3,78.4,313.1,197,313.1,197s43.9-10,81.4-3.4c37.5,6.6,75.3,31,75.3,31s111.8-85.4,132.4-46.4
		c20.6,39.1-39.1,133.7-39.1,133.7S583.1,495.9,550.9,550 M499.7,35.6l-150-26.4C201.6-16.9,60.3,82,34.2,230.1l-26.4,150
		c-26.1,148.1,72.8,289.4,220.9,315.5l150,26.4c148.1,26.1,289.4-72.8,315.5-220.9l26.4-150C746.7,203,647.8,61.7,499.7,35.6"/>
</g>
</svg>
